TITL Li -0.0127 20.372064 -189.969646 0 0 1 (Fm-3m) n - 1
CELL 1.0  3.065608 3.065608 3.065608 120.0 90.0 120.0
LATT -1
SFAC 	 Li
Li        1       0.000000        0.000000        0.000000         1.000000
END
