TITL KPSn-0v4qzv -0.003 420.419666 -6224.71538 0 0 9 (Pm) n - 1
CELL 1.0  10.715243 6.082256 7.615795 90.0 57.890567 90.0
LATT -1
SFAC 	 K P Sn
K         1       0.029429        0.500000        0.206897   1.0
K         1       0.188074        0.000000        0.770895   1.0
K         1       0.317057        0.000000        0.196128   1.0
K         1       0.426623        0.500000        0.567609   1.0
K         1       0.613582        0.500000        0.829838   1.0
K         1       0.733761        0.000000        0.209897   1.0
K         1       0.850520        0.000000        0.643349   1.0
P         2       0.519590        0.000000        0.702848   1.0
Sn        3       1.015018        0.500000        0.716414   1.0
END
